Tidy data
…
treatment %>% 
  fill(person)

## # A tibble: 4 x 3
##   person           treatment response
##   <chr>                <dbl>    <dbl>
## 1 Derrick Whitmore         1        7
## 2 Derrick Whitmore         2       10
## 3 Derrick Whitmore         3        9
## 4 Katherine Burke          1        4

Real world problem (Messy data)

## # A tibble: 7,240 x 60
##    country     iso2  iso3   year new_sp_m014 new_sp_m1524 new_sp_m2534 new_sp_m3544
##    <chr>       <chr> <chr> <int>       <int>        <int>        <int>        <int>
##  1 Afghanistan AF    AFG    1980          NA           NA           NA           NA
##  2 Afghanistan AF    AFG    1981          NA           NA           NA           NA
##  3 Afghanistan AF    AFG    1982          NA           NA           NA           NA
##  4 Afghanistan AF    AFG    1983          NA           NA           NA           NA
##  5 Afghanistan AF    AFG    1984          NA           NA           NA           NA
##  6 Afghanistan AF    AFG    1985          NA           NA           NA           NA
##  7 Afghanistan AF    AFG    1986          NA           NA           NA           NA
##  8 Afghanistan AF    AFG    1987          NA           NA           NA           NA
##  9 Afghanistan AF    AFG    1988          NA           NA           NA           NA
## 10 Afghanistan AF    AFG    1989          NA           NA           NA           NA
## # ... with 7,230 more rows, and 52 more variables: new_sp_m4554 <int>,
## #   new_sp_m5564 <int>, new_sp_m65 <int>, new_sp_f014 <int>,
## #   new_sp_f1524 <int>, new_sp_f2534 <int>, new_sp_f3544 <int>,
## #   new_sp_f4554 <int>, new_sp_f5564 <int>, new_sp_f65 <int>,
## #   new_sn_m014 <int>, new_sn_m1524 <int>, new_sn_m2534 <int>,
## #   new_sn_m3544 <int>, new_sn_m4554 <int>, new_sn_m5564 <int>,
## #   new_sn_m65 <int>, new_sn_f014 <int>, new_sn_f1524 <int>, ...

Real world problem (Messy data)

who1 <- who %>% 
  pivot_longer(
    cols = new_sp_m014:newrel_f65, 
    names_to = "key", 
    values_to = "cases", 
    values_drop_na = TRUE
  )
who1

## # A tibble: 76,046 x 6
##    country     iso2  iso3   year key          cases
##    <chr>       <chr> <chr> <int> <chr>        <int>
##  1 Afghanistan AF    AFG    1997 new_sp_m014      0
##  2 Afghanistan AF    AFG    1997 new_sp_m1524    10
##  3 Afghanistan AF    AFG    1997 new_sp_m2534     6
##  4 Afghanistan AF    AFG    1997 new_sp_m3544     3
##  5 Afghanistan AF    AFG    1997 new_sp_m4554     5
##  6 Afghanistan AF    AFG    1997 new_sp_m5564     2
##  7 Afghanistan AF    AFG    1997 new_sp_m65       0
##  8 Afghanistan AF    AFG    1997 new_sp_f014      5
##  9 Afghanistan AF    AFG    1997 new_sp_f1524    38
## 10 Afghanistan AF    AFG    1997 new_sp_f2534    36
## # ... with 76,036 more rows
…
Real world problem (Messy data)

who2 <- who1 %>% 
  mutate(key = stringr::str_replace(key, "newrel", "new_rel")) 

Then count on key again

## # A tibble: 50 x 2
##    key               n
##    <chr>         <int>
##  1 new_ep_f65     1014
##  2 new_ep_m014    1038
##  3 new_ep_m1524   1026
##  4 new_ep_m2534   1020
##  5 new_ep_m3544   1024
##  6 new_ep_m4554   1020
##  7 new_ep_m5564   1015
##  8 new_ep_m65     1018
##  9 new_rel_f014    190
## 10 new_rel_f1524   184
## 11 new_rel_f2534   182
## 12 new_rel_f3544   183
## 13 new_rel_f4554   183
## # ... with 37 more rows

Real world problem (Messy data)

who3 <- who2 %>% 
  separate(key, c("new", "type", "sexage"), sep = "_")

who3

## # A tibble: 76,046 x 8
##    country     iso2  iso3   year new   type  sexage cases
##    <chr>       <chr> <chr> <int> <chr> <chr> <chr>  <int>
##  1 Afghanistan AF    AFG    1997 new   sp    m014       0
##  2 Afghanistan AF    AFG    1997 new   sp    m1524     10
##  3 Afghanistan AF    AFG    1997 new   sp    m2534      6
##  4 Afghanistan AF    AFG    1997 new   sp    m3544      3
##  5 Afghanistan AF    AFG    1997 new   sp    m4554      5
##  6 Afghanistan AF    AFG    1997 new   sp    m5564      2
##  7 Afghanistan AF    AFG    1997 new   sp    m65        0
##  8 Afghanistan AF    AFG    1997 new   sp    f014       5
##  9 Afghanistan AF    AFG    1997 new   sp    f1524     38
## 10 Afghanistan AF    AFG    1997 new   sp    f2534     36
## # ... with 76,036 more rows

Real world problem (Messy data)

who3 <- who2 %>% 
  separate(key, c("new", "type", "sexage"), sep = "_")

who3

## # A tibble: 76,046 x 8
##    country     iso2  iso3   year new   type  sexage cases
##    <chr>       <chr> <chr> <int> <chr> <chr> <chr>  <int>
##  1 Afghanistan AF    AFG    1997 new   sp    m014       0
##  2 Afghanistan AF    AFG    1997 new   sp    m1524     10
##  3 Afghanistan AF    AFG    1997 new   sp    m2534      6
##  4 Afghanistan AF    AFG    1997 new   sp    m3544      3
##  5 Afghanistan AF    AFG    1997 new   sp    m4554      5
##  6 Afghanistan AF    AFG    1997 new   sp    m5564      2
##  7 Afghanistan AF    AFG    1997 new   sp    m65        0
##  8 Afghanistan AF    AFG    1997 new   sp    f014       5
##  9 Afghanistan AF    AFG    1997 new   sp    f1524     38
## 10 Afghanistan AF    AFG    1997 new   sp    f2534     36
## # ... with 76,036 more rows

Real world problem (Messy data)

who4 <- who3 %>%
  select(-new, -iso2, -iso3) %>% 
  separate(sexage, c("sex", "age"), sep = 1) 

who4

## # A tibble: 76,046 x 6
##    country      year type  sex   age   cases
##    <chr>       <int> <chr> <chr> <chr> <int>
##  1 Afghanistan  1997 sp    m     014       0
##  2 Afghanistan  1997 sp    m     1524     10
##  3 Afghanistan  1997 sp    m     2534      6
##  4 Afghanistan  1997 sp    m     3544      3
##  5 Afghanistan  1997 sp    m     4554      5
##  6 Afghanistan  1997 sp    m     5564      2
##  7 Afghanistan  1997 sp    m     65        0
##  8 Afghanistan  1997 sp    f     014       5
##  9 Afghanistan  1997 sp    f     1524     38
## 10 Afghanistan  1997 sp    f     2534     36
## # ... with 76,036 more rows

Real world problem (Messy data)

who4 %>% 
  mutate(age = if_else(age=="65", "65+"
                       , word(age, end = -3, sep = "") %>% 
                         str_c("-", str_remove(age, .)) )) 

## # A tibble: 76,046 x 6
##    country      year type  sex   age   cases
##    <chr>       <int> <chr> <chr> <chr> <int>
##  1 Afghanistan  1997 sp    m     0-14      0
##  2 Afghanistan  1997 sp    m     15-24    10
##  3 Afghanistan  1997 sp    m     25-34     6
##  4 Afghanistan  1997 sp    m     35-44     3
##  5 Afghanistan  1997 sp    m     45-54     5
##  6 Afghanistan  1997 sp    m     55-64     2
##  7 Afghanistan  1997 sp    m     65+       0
##  8 Afghanistan  1997 sp    f     0-14      5
##  9 Afghanistan  1997 sp    f     15-24    38
## 10 Afghanistan  1997 sp    f     25-34    36
## # ... with 76,036 more rows
…
