Statistical modeling in R
…
Honorary mention: broom

fit %>% broom::glance()

## # A tibble: 1 x 12
##   r.squared adj.r.squared sigma statistic  p.value    df  logLik    AIC    BIC
##       <dbl>         <dbl> <dbl>     <dbl>    <dbl> <dbl>   <dbl>  <dbl>  <dbl>
## 1   0.00418       0.00356  2.50      6.81 0.000140     3 -11379. 22769. 22801.
## # ... with 3 more variables: deviance <dbl>, df.residual <int>, nobs <int>

Honorary mention: broom

fit %>% broom::augment()

## # A tibble: 4,877 x 9
##    stateur tenure   age .fitted .resid     .hat .sigma    .cooksd .std.resid
##      <dbl>  <int> <int>   <dbl>  <dbl>    <dbl>  <dbl>      <dbl>      <dbl>
##  1     4.5     21    49    7.64 -3.14  0.00143    2.50 0.000567      -1.26  
##  2    10.5      2    26    7.54  2.96  0.000458   2.50 0.000161       1.19  
##  3     7.2     19    40    7.89 -0.685 0.00215    2.50 0.0000408     -0.275 
##  4     5.8     17    51    7.51 -1.71  0.000977   2.50 0.000114      -0.683 
##  5     6.5      1    33    7.42 -0.921 0.000375   2.50 0.0000128     -0.369 
##  6     7.5      3    51    7.27  0.231 0.000963   2.50 0.00000207     0.0927
##  7     5.8      5    30    7.62 -1.82  0.000325   2.50 0.0000431     -0.729 
##  8     5.8      3    26    7.59 -1.79  0.000401   2.50 0.0000514     -0.716 
##  9     7.7     20    54    7.46  0.242 0.00170    2.50 0.00000402     0.0971
## 10     6        1    31    7.44 -1.44  0.000403   2.50 0.0000337     -0.578 
## # ... with 4,867 more rows
…
